^D:\ПРОЕКТЫ UNREAL\UNREAL\C++\HW16.1\HW16.1\HW16.1\HW16.1.CPP
D:\ПРОЕКТЫ UNREAL\UNREAL\C++\HW16.1\HW16.1\HW16.1\RELEASE\VC141.PDB
D:\ПРОЕКТЫ UNREAL\UNREAL\C++\HW16.1\HW16.1\HW16.1\RELEASE\HW16.1.OBJ
